Capítulo 18 Pacotes pwr e rstatix | Estatística + R
…
# Tamanho do efeito r de Wilcoxon para Green vs Yellow
wilcox_effsize(dados_filtrados, Speed ~ Color)

## # A tibble: 1 × 7
##   .y.   group1 group2 effsize    n1    n2 magnitude
## * <chr> <chr>  <chr>    <dbl> <int> <int> <ord>    
## 1 Speed Green  Yellow   0.206    79    64 small

# Tamanho do efeito r de Wilcoxon para todas as combinações de cores
wilcox_effsize(Pokemon, Speed ~ Color)

## # A tibble: 45 × 7
##    .y.   group1 group2 effsize    n1    n2 magnitude
##  * <chr> <chr>  <chr>    <dbl> <int> <int> <ord>    
##  1 Speed Black  Blue   0.0633     32   134 small    
##  2 Speed Black  Brown  0.0170     32   110 small    
##  3 Speed Black  Green  0.0334     32    79 small    
##  4 Speed Black  Grey   0.165      32    69 small    
##  5 Speed Black  Pink   0.317      32    41 moderate 
##  6 Speed Black  Purple 0.0632     32    65 small    
##  7 Speed Black  Red    0.0277     32    75 small    
##  8 Speed Black  White  0.00503    32    52 small    
##  9 Speed Black  Yellow 0.150      32    64 small    
## 10 Speed Blue   Brown  0.0546    134   110 small    
## # ℹ 35 more rows
…
